[
    {
        "key": "shift+cmd+l",
        "command": "editor.action.formatDocument",
        "when": "editorHasDocumentFormattingProvider && editorTextFocus && !editorReadonly"
    },
    {
        "key": "shift+alt+f",
        "command": "-editor.action.formatDocument",
        "when": "editorHasDocumentFormattingProvider && editorTextFocus && !editorReadonly"
    },
    {
        "key": "shift+cmd+g",
        "command": "workbench.view.scm"
    },
    {
        "key": "ctrl+shift+g",
        "command": "-workbench.view.scm"
    }
]
